<svg id="building-outline" xmlns="http://www.w3.org/2000/svg" width="108.065" height="108.065" viewBox="0 0 108.065 108.065">
  <path id="Path_398" data-name="Path 398" d="M543.947,1254.793a2.111,2.111,0,0,0,2.111-2.111v-9.427a2.111,2.111,0,1,0-4.221,0v9.428A2.111,2.111,0,0,0,543.947,1254.793Z" transform="translate(-504.759 -1228.973)" fill="#231f20"/>
  <path id="Path_399" data-name="Path 399" d="M614.407,1254.793a2.111,2.111,0,0,0,2.111-2.111v-9.427a2.111,2.111,0,1,0-4.221,0v9.428A2.111,2.111,0,0,0,614.407,1254.793Z" transform="translate(-560.347 -1228.973)" fill="#231f20"/>
  <path id="Path_400" data-name="Path 400" d="M684.867,1254.793a2.111,2.111,0,0,0,2.111-2.111v-9.427a2.111,2.111,0,1,0-4.221,0v9.428A2.111,2.111,0,0,0,684.867,1254.793Z" transform="translate(-615.936 -1228.973)" fill="#231f20"/>
  <path id="Path_401" data-name="Path 401" d="M541.836,1355.93a2.111,2.111,0,0,0,4.221,0V1346.5a2.111,2.111,0,0,0-4.221,0Z" transform="translate(-504.759 -1310.428)" fill="#231f20"/>
  <path id="Path_402" data-name="Path 402" d="M612.3,1355.93a2.111,2.111,0,0,0,4.221,0V1346.5a2.111,2.111,0,0,0-4.221,0v9.428Z" transform="translate(-560.347 -1310.428)" fill="#231f20"/>
  <path id="Path_403" data-name="Path 403" d="M682.756,1355.93a2.111,2.111,0,0,0,4.221,0V1346.5a2.111,2.111,0,0,0-4.221,0Z" transform="translate(-615.936 -1310.428)" fill="#231f20"/>
  <path id="Path_404" data-name="Path 404" d="M541.836,1459.178a2.111,2.111,0,0,0,4.221,0v-9.428a2.111,2.111,0,0,0-4.221,0Z" transform="translate(-504.759 -1391.884)" fill="#231f20"/>
  <path id="Path_405" data-name="Path 405" d="M612.3,1459.178a2.111,2.111,0,0,0,4.221,0v-9.428a2.111,2.111,0,0,0-4.221,0v9.428Z" transform="translate(-560.347 -1391.884)" fill="#231f20"/>
  <path id="Path_406" data-name="Path 406" d="M682.756,1459.178a2.111,2.111,0,0,0,4.221,0v-9.428a2.111,2.111,0,0,0-4.221,0Z" transform="translate(-615.936 -1391.884)" fill="#231f20"/>
  <path id="Path_407" data-name="Path 407" d="M429.28,1447.64a2.111,2.111,0,0,0-2.111,2.111v9.428a2.111,2.111,0,0,0,4.221,0v-9.428A2.111,2.111,0,0,0,429.28,1447.64Z" transform="translate(-414.294 -1391.884)" fill="#231f20"/>
  <path id="Path_408" data-name="Path 408" d="M429.28,1550.889a2.111,2.111,0,0,0-2.111,2.111v9.428a2.111,2.111,0,0,0,4.221,0V1553A2.111,2.111,0,0,0,429.28,1550.889Z" transform="translate(-414.294 -1473.341)" fill="#231f20"/>
  <path id="Path_409" data-name="Path 409" d="M541.836,1562.427a2.111,2.111,0,0,0,4.221,0V1553a2.111,2.111,0,1,0-4.221,0Z" transform="translate(-504.759 -1473.341)" fill="#231f20"/>
  <path id="Path_410" data-name="Path 410" d="M612.3,1562.427a2.111,2.111,0,0,0,4.221,0V1553a2.111,2.111,0,1,0-4.221,0v9.428Z" transform="translate(-560.347 -1473.341)" fill="#231f20"/>
  <path id="Path_411" data-name="Path 411" d="M792.28,1433.887a2.112,2.112,0,1,0-1.492-.619A2.124,2.124,0,0,0,792.28,1433.887Z" transform="translate(-700.678 -1377.704)" fill="#43b649"/>
  <path id="Path_412" data-name="Path 412" d="M686.977,1553a2.111,2.111,0,1,0-4.221,0v8.925a17.131,17.131,0,0,1,4.221-2.052Z" transform="translate(-615.936 -1473.341)" fill="#231f20"/>
  <path id="Path_413" data-name="Path 413" d="M474.234,1254.326v-23.274a16.453,16.453,0,0,0-25.75-13.584V1187.7h2.849a2.111,2.111,0,0,0,0-4.221H389.07a2.111,2.111,0,1,0,0,4.221h2.849v11.046a2.111,2.111,0,1,0,4.221,0V1187.7h48.123v33.559a2.116,2.116,0,0,0,.032.355,16.37,16.37,0,0,0-2.987,9.44v23.274a16.366,16.366,0,0,0,2.955,9.394v6.479a12.353,12.353,0,0,0-7.052-.18v-.011a17.126,17.126,0,0,0-4.221,2.052v.028a12.316,12.316,0,0,0-3.384,3.925,9.176,9.176,0,0,0-11.186,11.307H396.14v-71.692a2.111,2.111,0,0,0-4.221,0v9.217H368.28a2.111,2.111,0,0,0-2.111,2.111v62.475a2.111,2.111,0,0,0,2.111,2.111H472.124a2.111,2.111,0,1,0,0-4.221H459.882v-16.672A16.484,16.484,0,0,0,474.234,1254.326Zm-82.315,32.995H370.39v-58.254h21.529Zm62.643,0H422.948a4.959,4.959,0,0,1,6.743-6.757,2.111,2.111,0,0,0,3.036-1.178,8.126,8.126,0,0,1,15.16-.7,2.11,2.11,0,0,0,2.059,1.26c.1-.006.194-.01.292-.01a4.959,4.959,0,0,1,4.325,7.387Zm1.1-9.829a9.126,9.126,0,0,0-4.533-1.737,12.339,12.339,0,0,0-2.643-3.181v-4.663a16.363,16.363,0,0,0,7.176,2.738Zm2.111-33.611a2.111,2.111,0,0,0-2.111,2.111v20.39a12.259,12.259,0,0,1-10.131-12.056v-23.274a12.242,12.242,0,0,1,24.484,0v23.274a12.259,12.259,0,0,1-10.131,12.056v-20.39A2.111,2.111,0,0,0,457.771,1243.881Z" transform="translate(-366.169 -1183.477)" fill="#43b649"/>
  <path id="Path_414" data-name="Path 414" d="M489.15,1290.028a2.112,2.112,0,1,0-1.492-.619A2.117,2.117,0,0,0,489.15,1290.028Z" transform="translate(-461.528 -1264.209)" fill="#43b649"/>
</svg>
