<svg id="employee-outline" xmlns="http://www.w3.org/2000/svg" width="108.065" height="108.065" viewBox="0 0 108.065 108.065">
  <path id="Path_314" data-name="Path 314" d="M2364.071,1527.477a2.111,2.111,0,1,0,1.492.618A2.126,2.126,0,0,0,2364.071,1527.477Z" transform="translate(-2269.513 -1454.871)" fill="#43b649"/>
  <path id="Path_315" data-name="Path 315" d="M2083.641,1581.477a2.112,2.112,0,1,0,1.492.619A2.126,2.126,0,0,0,2083.641,1581.477Z" transform="translate(-2048.272 -1497.473)" fill="#43b649"/>
  <path id="Path_316" data-name="Path 316" d="M2110.669,1291.526l-8.463-1.85a13.523,13.523,0,0,0,5.755-11.064v-7.6a13.533,13.533,0,0,0-27.067,0v7.6a13.523,13.523,0,0,0,5.742,11.055l-8.458,1.855a11.919,11.919,0,0,0-9.308,11.572v9.267a2.111,2.111,0,0,0,2.111,2.111h46.894a2.111,2.111,0,0,0,2.111-2.111V1303.1A11.917,11.917,0,0,0,2110.669,1291.526Zm-25.554-20.516a9.313,9.313,0,0,1,18.575-.968l-4.412-2.592a2.11,2.11,0,0,0-2.687.464,10.415,10.415,0,0,1-8,3.734h-3.474v-.639Zm0,4.86h3.474a14.621,14.621,0,0,0,9.993-3.932l5.157,3.03v3.644a9.312,9.312,0,1,1-18.624,0Zm12.154,15.972-2.872,6.748-2.878-6.764a13.472,13.472,0,0,0,5.75.015Zm18.494,18.408h-42.673v-7.157a7.671,7.671,0,0,1,5.992-7.448l8.665-1.9,4.708,11.063a2.111,2.111,0,0,0,3.885,0l4.708-11.064,8.719,1.907a7.671,7.671,0,0,1,6,7.45v7.151Z" transform="translate(-2038.285 -1241.858)" fill="#231f20"/>
  <path id="Path_317" data-name="Path 317" d="M2156.657,1581.477H2123.64a2.111,2.111,0,0,0,0,4.221h33.017a2.111,2.111,0,0,0,0-4.221Z" transform="translate(-2079.829 -1497.473)" fill="#43b649"/>
  <path id="Path_318" data-name="Path 318" d="M2021.472,1183.477h-78.516a10.565,10.565,0,0,0-10.553,10.553v5.066h-2.111a6.332,6.332,0,1,0,0,12.664h2.111v19.418h-2.111a6.332,6.332,0,1,0,0,12.664h2.111v19.418h-2.111a6.332,6.332,0,1,0,0,12.664h2.111v5.066a10.565,10.565,0,0,0,10.553,10.553h78.516a10.565,10.565,0,0,0,10.553-10.553V1194.03A10.565,10.565,0,0,0,2021.472,1183.477Zm-93.291,21.951a2.113,2.113,0,0,1,2.111-2.111h8.443a2.111,2.111,0,0,1,0,4.221h-8.443A2.113,2.113,0,0,1,1928.181,1205.428Zm0,32.082a2.113,2.113,0,0,1,2.111-2.111h8.443a2.111,2.111,0,0,1,0,4.221h-8.443A2.113,2.113,0,0,1,1928.181,1237.51Zm0,32.082a2.113,2.113,0,0,1,2.111-2.111h8.443a2.111,2.111,0,0,1,0,4.221h-8.443A2.113,2.113,0,0,1,1928.181,1269.591Zm99.623,11.4a6.339,6.339,0,0,1-6.332,6.332h-2.96a10.5,10.5,0,0,0,2.116-6.332v-14.263a2.111,2.111,0,0,0-4.221,0v14.263a6.339,6.339,0,0,1-6.332,6.332h-67.119a6.339,6.339,0,0,1-6.332-6.332v-5.066h2.111a6.332,6.332,0,1,0,0-12.664h-2.111v-19.418h2.111a6.332,6.332,0,1,0,0-12.664h-2.111V1211.76h2.111a6.332,6.332,0,0,0,0-12.664h-2.111v-5.066a6.339,6.339,0,0,1,6.332-6.332h67.119a6.339,6.339,0,0,1,6.332,6.332v55.721a2.111,2.111,0,1,0,4.221,0V1194.03a10.5,10.5,0,0,0-2.116-6.332h2.96a6.339,6.339,0,0,1,6.332,6.332Z" transform="translate(-1923.96 -1183.477)" fill="#43b649"/>
</svg>
