<svg xmlns="http://www.w3.org/2000/svg" width="101.297" height="101.311" viewBox="0 0 101.297 101.311">
  <g id="growth-outline" transform="translate(0 0)">
    <path id="Path_221" data-name="Path 221" d="M5020.918,3623.723v-6.753a1.689,1.689,0,0,0-1.688-1.688h-97.92a1.688,1.688,0,0,0,0,3.376h96.232v3.377h-96.232a1.688,1.688,0,0,0,0,3.376h3.377v57.4h-3.377a1.688,1.688,0,0,0-1.688,1.688v6.753a1.688,1.688,0,0,0,1.688,1.688h47.272v13.811a5.064,5.064,0,1,0,3.376,0v-13.811h47.272a1.688,1.688,0,1,0,0-3.377H4923v-3.376h96.232a1.688,1.688,0,1,0,0-3.377h-3.376v-52.337a1.688,1.688,0,1,0-3.376,0v52.337h-84.414v-57.4h91.167A1.689,1.689,0,0,0,5020.918,3623.723Zm-50.649,89.479a1.688,1.688,0,1,1,1.688-1.688A1.688,1.688,0,0,1,4970.269,3713.2Z" transform="translate(-4919.621 -3615.282)" fill="#43b649"/>
    <path id="Path_222" data-name="Path 222" d="M5257.262,3797.65h10.13a1.689,1.689,0,0,0,1.688-1.688v-27.013a1.689,1.689,0,0,0-1.688-1.688h-10.13a1.688,1.688,0,0,0-1.688,1.688v27.013A1.688,1.688,0,0,0,5257.262,3797.65Zm1.688-27.013h6.753v23.636h-6.753Z" transform="translate(-5184.667 -3735.184)" fill="#231f20"/>
    <path id="Path_223" data-name="Path 223" d="M5169.274,3813.206a1.688,1.688,0,0,0,0,3.377h10.13a1.688,1.688,0,0,0,1.688-1.688v-21.948a1.688,1.688,0,0,0-1.688-1.688h-10.13a1.688,1.688,0,0,0-1.688,1.688v15.194a1.688,1.688,0,1,0,3.376,0v-13.506h6.753v18.571Z" transform="translate(-5115.25 -3754.116)" fill="#231f20"/>
    <path id="Path_224" data-name="Path 224" d="M5081.286,3815.254a1.688,1.688,0,0,0-1.688,1.688v16.883a1.688,1.688,0,0,0,1.688,1.688h10.13a1.689,1.689,0,0,0,1.688-1.688v-16.883a1.689,1.689,0,0,0-1.688-1.688Zm8.441,16.883h-6.753V3818.63h6.753Z" transform="translate(-5045.833 -3773.047)" fill="#231f20"/>
    <path id="Path_225" data-name="Path 225" d="M4991.611,3859.068a1.688,1.688,0,0,0,1.688,1.688h10.13a1.689,1.689,0,0,0,1.688-1.688v-10.13a1.689,1.689,0,0,0-1.688-1.688H4993.3a1.688,1.688,0,0,0-1.688,1.688Zm3.376-8.441h6.753v6.753h-6.753Z" transform="translate(-4976.416 -3798.29)" fill="#231f20"/>
    <path id="Path_226" data-name="Path 226" d="M5073.029,3687.714a1.688,1.688,0,1,0,3.376,0v-6.753a1.715,1.715,0,0,0-1.688-1.688h-6.752a1.688,1.688,0,1,0,0,3.376h2.684l-11.818,11.818H5034.2a1.692,1.692,0,0,0-.76.186l-16.883,8.441a1.687,1.687,0,0,0,.76,3.191,1.571,1.571,0,0,0,.759-.185l16.529-8.256h24.919a1.69,1.69,0,0,0,1.2-.49l12.308-12.324Z" transform="translate(-4995.368 -3665.766)" fill="#231f20"/>
    <path id="Path_227" data-name="Path 227" d="M4996.676,3689.4a5.065,5.065,0,1,0-5.065-5.065A5.065,5.065,0,0,0,4996.676,3689.4Zm0-6.753a1.688,1.688,0,1,1-1.688,1.688A1.688,1.688,0,0,1,4996.676,3682.649Z" transform="translate(-4976.416 -3665.766)" fill="#43b649"/>
    <path id="Path_228" data-name="Path 228" d="M5058.979,3696.959a1.688,1.688,0,1,1-1.688-1.688A1.689,1.689,0,0,1,5058.979,3696.959Z" transform="translate(-5026.901 -3678.388)" fill="#43b649"/>
    <path id="Path_229" data-name="Path 229" d="M5090.974,3696.959a1.688,1.688,0,1,1-1.688-1.688A1.688,1.688,0,0,1,5090.974,3696.959Z" transform="translate(-5052.144 -3678.388)" fill="#43b649"/>
  </g>
</svg>
