<svg xmlns="http://www.w3.org/2000/svg" width="101.312" height="101.311" viewBox="0 0 101.312 101.311">
  <g id="money-outline" transform="translate(0 0)">
    <path id="Path_300" data-name="Path 300" d="M2039.583,2870.575a1.689,1.689,0,0,0,1.689-1.688V2836.8a1.689,1.689,0,0,0-1.689-1.688h-97.934a1.688,1.688,0,0,0-1.689,1.688v60.787a1.689,1.689,0,0,0,1.689,1.689h27.016v8.443h-10.131a1.688,1.688,0,0,0-1.689,1.688v10.131h-5.065a1.689,1.689,0,0,0-1.689,1.689v13.508a1.689,1.689,0,0,0,1.689,1.689h13.508a1.689,1.689,0,0,0,1.688-1.689V2921.23a1.689,1.689,0,0,0-1.688-1.689h-5.066V2911.1h10.131a1.689,1.689,0,0,0,1.689-1.689V2899.28h11.82v10.131a1.689,1.689,0,0,0,1.688,1.689h3.377v8.442h-5.065a1.689,1.689,0,0,0-1.689,1.689v13.508a1.689,1.689,0,0,0,1.689,1.689h13.508a1.689,1.689,0,0,0,1.688-1.689V2921.23a1.689,1.689,0,0,0-1.688-1.689H1992.3v-10.131a1.688,1.688,0,0,0-1.688-1.688h-3.377v-8.443h21.951v10.131a1.689,1.689,0,0,0,1.688,1.689h10.131v5.065h-5.066a1.689,1.689,0,0,0-1.689,1.688v13.508a1.689,1.689,0,0,0,1.689,1.688h13.508a1.689,1.689,0,0,0,1.688-1.688v-13.508a1.689,1.689,0,0,0-1.688-1.688h-5.066v-6.754a1.688,1.688,0,0,0-1.688-1.688h-10.131v-8.443h27.016a1.689,1.689,0,0,0,1.689-1.689V2875.64a1.689,1.689,0,0,0-3.377,0V2895.9h-94.557v-57.41h94.557v30.393A1.689,1.689,0,0,0,2039.583,2870.575ZM1963.6,2933.05h-10.131v-10.131H1963.6Zm32.082,0H1985.55v-10.131h10.131Zm32.082-3.377h-10.131v-10.131h10.131Z" transform="translate(-1939.96 -2835.116)" fill="#43b649"/>
    <path id="Path_301" data-name="Path 301" d="M2002.353,2917.771h42.213a1.689,1.689,0,0,0,1.688-1.689,11.819,11.819,0,0,1,11.819-11.819,1.689,1.689,0,0,0,1.688-1.688v-20.262a1.689,1.689,0,0,0-1.688-1.689,11.819,11.819,0,0,1-11.819-11.82,1.689,1.689,0,0,0-1.688-1.688h-57.41a1.689,1.689,0,0,0-1.688,1.688,11.819,11.819,0,0,1-11.82,11.82,1.689,1.689,0,0,0-1.688,1.689v20.262a1.689,1.689,0,0,0,1.688,1.688,11.819,11.819,0,0,1,11.82,11.819,1.689,1.689,0,0,0,1.688,1.689h8.443a1.689,1.689,0,1,0,0-3.377h-6.856a15.2,15.2,0,0,0-13.406-13.407V2883.9a15.2,15.2,0,0,0,13.406-13.406h54.235a15.2,15.2,0,0,0,13.407,13.406v17.088a15.2,15.2,0,0,0-13.407,13.407h-40.626a1.689,1.689,0,0,0,0,3.377Z" transform="translate(-1965.206 -2860.362)" fill="#43b649"/>
    <path id="Path_302" data-name="Path 302" d="M2097.38,2906.967a1.688,1.688,0,0,0-2.33.49,18.612,18.612,0,1,0,5.251-5.251,1.689,1.689,0,1,0,1.79,2.8,15.2,15.2,0,1,1-4.238,4.238A1.688,1.688,0,0,0,2097.38,2906.967Z" transform="translate(-2059.878 -2885.608)" fill="#231f20"/>
    <path id="Path_303" data-name="Path 303" d="M2157.794,2943.378a2.532,2.532,0,0,1-2.533-2.532,1.689,1.689,0,1,0-3.377,0,5.909,5.909,0,0,0,4.221,5.639v1.959a1.688,1.688,0,0,0,3.377,0v-1.959a5.893,5.893,0,0,0-1.688-11.549,2.533,2.533,0,1,1,2.533-2.533,1.688,1.688,0,1,0,3.377,0,5.909,5.909,0,0,0-4.221-5.639V2924.8a1.688,1.688,0,0,0-3.377,0v1.959a5.893,5.893,0,0,0,1.688,11.549,2.533,2.533,0,1,1,0,5.065Z" transform="translate(-2107.138 -2904.542)" fill="#231f20"/>
    <path id="Path_304" data-name="Path 304" d="M2300.4,2982.493a1.688,1.688,0,0,0,0-3.377h-6.754a1.688,1.688,0,0,0,0,3.377Z" transform="translate(-2217.665 -2948.723)" fill="#231f20"/>
    <path id="Path_305" data-name="Path 305" d="M2021.648,2979.116a1.688,1.688,0,0,0,0,3.377h6.754a1.688,1.688,0,1,0,0-3.377Z" transform="translate(-2003.075 -2948.723)" fill="#231f20"/>
    <path id="Path_306" data-name="Path 306" d="M2327.337,3252.8a1.688,1.688,0,1,1-1.688-1.688A1.689,1.689,0,0,1,2327.337,3252.8Z" transform="translate(-2242.911 -3163.313)" fill="#43b649"/>
    <path id="Path_307" data-name="Path 307" d="M2023.337,3268.8a1.689,1.689,0,1,1-1.689-1.688A1.689,1.689,0,0,1,2023.337,3268.8Z" transform="translate(-2003.075 -3175.936)" fill="#43b649"/>
  </g>
</svg>
