<svg id="facebook-review" xmlns="http://www.w3.org/2000/svg" xmlns:xlink="http://www.w3.org/1999/xlink" width="156.975" height="52.112" viewBox="0 0 156.975 52.112">
  <defs>
    <clipPath id="clip-path">
      <rect id="Rectangle_149" data-name="Rectangle 149" width="156.975" height="30.269" fill="#707070"/>
    </clipPath>
  </defs>
  <g id="Facebook_Logo__2015__light" data-name="Facebook_Logo_(2015)_light" transform="translate(0 0)">
    <g id="Group_244" data-name="Group 244" clip-path="url(#clip-path)">
      <path id="Path_92" data-name="Path 92" d="M12.2,4.693c-1.877,0-2.346.939-2.346,2.581v3.05h4.927l-.469,4.927H9.855V30.034H3.989V15.252H0V10.324H3.989V7.509C3.989,2.581,5.866,0,11.5,0a13.425,13.425,0,0,1,3.285.235V4.693" fill="#707070"/>
    </g>
    <g id="Group_245" data-name="Group 245" clip-path="url(#clip-path)">
      <path id="Path_93" data-name="Path 93" d="M6.5,13.82c0-5.4,2.581-9.62,7.978-9.62a5.574,5.574,0,0,1,5.631,3.52V4.669h5.631V24.144H20.109v-3.05a5.735,5.735,0,0,1-5.631,3.285c-5.4,0-7.978-3.989-7.978-9.62m5.866.469c0,2.816,1.173,4.927,3.754,4.927,2.346,0,3.754-1.877,3.754-4.458V13.586c0-2.816-1.173-4.458-3.754-4.458C13.539,8.893,12.366,11,12.366,13.82Z" transform="translate(8.752 5.655)" fill="#707070"/>
    </g>
    <g id="Group_246" data-name="Group 246" clip-path="url(#clip-path)">
      <path id="Path_94" data-name="Path 94" d="M25.79,4.3c2.346,0,4.458.469,5.631,1.408L30.013,9.931a9.074,9.074,0,0,0-3.989-.939c-3.285,0-4.693,1.877-4.693,4.927v1.173c0,3.05,1.408,4.927,4.693,4.927a9.074,9.074,0,0,0,3.989-.939l1.408,4.224c-1.173.939-3.285,1.408-5.631,1.408-7.039,0-10.09-3.754-10.09-9.62V13.92c0-6.1,3.05-9.62,10.09-9.62" transform="translate(21.139 5.79)" fill="#707070"/>
    </g>
    <g id="Group_247" data-name="Group 247" clip-path="url(#clip-path)">
      <path id="Path_95" data-name="Path 95" d="M22.7,15.093V13.451C22.7,7.82,25.75,4.3,32.32,4.3,38.421,4.3,41,8.054,41,13.451V16.5H28.566c.235,2.581,1.408,3.754,4.693,3.754a18.965,18.965,0,0,0,6.335-1.173l1.173,3.989a21.38,21.38,0,0,1-7.509,1.408c-7.743,0-10.559-3.52-10.559-9.386m5.866-2.581h7.039v-.469c0-2.112-.939-3.754-3.52-3.754-2.346,0-3.52,1.642-3.52,4.224" transform="translate(30.564 5.79)" fill="#707070"/>
    </g>
    <g id="Group_248" data-name="Group 248" clip-path="url(#clip-path)">
      <path id="Path_96" data-name="Path 96" d="M51.075,20.883c0,5.4-2.581,9.62-7.978,9.62a6.094,6.094,0,0,1-5.866-3.285v3.05H31.6V.469L37.466,0V13.14a6.115,6.115,0,0,1,5.4-3.05c5.4,0,7.978,3.989,7.978,9.62m-5.631-.235c0-2.816-1.173-4.693-3.989-4.693-2.346,0-3.754,1.642-3.754,4.458v1.877c0,2.816,1.408,4.458,3.754,4.458,2.816,0,3.989-2.112,3.989-4.693Z" transform="translate(42.547)" fill="#707070"/>
    </g>
    <g id="Group_249" data-name="Group 249" clip-path="url(#clip-path)">
      <path id="Path_97" data-name="Path 97" d="M40.7,14.859V13.92c0-5.631,3.285-9.62,9.62-9.62,6.57,0,9.855,3.989,9.855,9.62v.939c0,5.631-3.285,9.62-9.62,9.62-6.57,0-9.855-3.989-9.855-9.62m13.609-1.408c0-2.581-1.173-4.693-3.754-4.693-2.816,0-3.754,2.112-3.754,4.693v1.877c0,2.581,1.173,4.693,3.754,4.693,2.816,0,3.754-2.112,3.754-4.693Z" transform="translate(54.799 5.79)" fill="#707070"/>
    </g>
    <g id="Group_250" data-name="Group 250" clip-path="url(#clip-path)">
      <path id="Path_98" data-name="Path 98" d="M49.8,14.859V13.92c0-5.631,3.285-9.62,9.62-9.62,6.57,0,9.62,3.989,9.62,9.62v.939c0,5.631-3.285,9.62-9.62,9.62s-9.62-3.989-9.62-9.62m13.609-1.408c0-2.581-1.173-4.693-3.754-4.693-2.816,0-3.754,2.112-3.754,4.693v1.877c0,2.581,1.173,4.693,3.754,4.693,2.816,0,3.754-2.112,3.754-4.693Z" transform="translate(67.051 5.79)" fill="#707070"/>
    </g>
    <g id="Group_251" data-name="Group 251" clip-path="url(#clip-path)">
      <path id="Path_99" data-name="Path 99" d="M64.966,19.71l5.866-9.386h6.335l-6.335,9.62,6.57,10.09H71.067l-6.1-9.62v9.62H59.1V.469L64.966,0" transform="translate(79.573)" fill="#707070"/>
    </g>
  </g>
  <g id="Group_355" data-name="Group 355" transform="translate(14.439 38.943)">
    <path id="Path_1158" data-name="Path 1158" d="M5.465-18.1H6.3a3.2,3.2,0,0,0,1.813-.409A1.462,1.462,0,0,0,8.7-19.8a1.337,1.337,0,0,0-.6-1.237A3.625,3.625,0,0,0,6.251-21.4H5.465Zm0,2.106v4.688H2.875V-23.527h3.56a6.092,6.092,0,0,1,3.685.907,3.236,3.236,0,0,1,1.195,2.753,3.241,3.241,0,0,1-.593,1.918,3.926,3.926,0,0,1-1.68,1.316q2.758,4.12,3.593,5.323H9.76L6.844-16Zm12.375-3.017a1.617,1.617,0,0,0-1.27.514,2.378,2.378,0,0,0-.526,1.458h3.576a2.124,2.124,0,0,0-.493-1.458A1.669,1.669,0,0,0,17.841-19.015Zm.359,7.871a4.822,4.822,0,0,1-3.526-1.245,4.714,4.714,0,0,1-1.27-3.526,5.185,5.185,0,0,1,1.174-3.631,4.18,4.18,0,0,1,3.246-1.283A4.115,4.115,0,0,1,20.908-19.7a4.268,4.268,0,0,1,1.1,3.117v1.237H15.986a2.453,2.453,0,0,0,.643,1.7,2.264,2.264,0,0,0,1.688.61,7.007,7.007,0,0,0,1.6-.175,7.986,7.986,0,0,0,1.571-.56V-11.8a5.984,5.984,0,0,1-1.429.5A9.009,9.009,0,0,1,18.2-11.143Zm7.763-.167L22.4-20.653h2.666l1.8,5.323a9.5,9.5,0,0,1,.376,1.914h.05a8.321,8.321,0,0,1,.376-1.914l1.8-5.323h2.666l-3.56,9.342Zm7.4-11.757q0-1.245,1.387-1.245t1.387,1.245a1.214,1.214,0,0,1-.347.923,1.458,1.458,0,0,1-1.04.33Q33.367-21.814,33.367-23.067ZM36.024-11.31H33.475v-9.342h2.549Zm6.543-7.7a1.617,1.617,0,0,0-1.27.514,2.378,2.378,0,0,0-.526,1.458h3.576a2.125,2.125,0,0,0-.493-1.458A1.669,1.669,0,0,0,42.567-19.015Zm.359,7.871A4.822,4.822,0,0,1,39.4-12.388a4.714,4.714,0,0,1-1.27-3.526A5.185,5.185,0,0,1,39.3-19.545a4.18,4.18,0,0,1,3.246-1.283A4.115,4.115,0,0,1,45.633-19.7a4.268,4.268,0,0,1,1.1,3.117v1.237H40.712a2.453,2.453,0,0,0,.643,1.7,2.264,2.264,0,0,0,1.688.61,7.007,7.007,0,0,0,1.6-.175,7.986,7.986,0,0,0,1.571-.56V-11.8a5.984,5.984,0,0,1-1.429.5A9.009,9.009,0,0,1,42.926-11.143Zm13.219-.167-.719-3.267-.969-4.128H54.4l-1.7,7.4H49.953L47.3-20.653h2.54l1.078,4.136q.259,1.111.526,3.067h.05a17.173,17.173,0,0,1,.292-2.014l.134-.71,1.153-4.479h2.808l1.095,4.479q.033.184.1.543t.138.765q.067.405.121.794t.063.623h.05q.075-.6.267-1.65t.276-1.416l1.12-4.136h2.5L58.92-11.31Zm13.487-2.774a2.572,2.572,0,0,1-1,2.189,4.934,4.934,0,0,1-2.987.752,9.383,9.383,0,0,1-1.738-.138,6.574,6.574,0,0,1-1.345-.405v-2.106a8.884,8.884,0,0,0,1.6.56,6.48,6.48,0,0,0,1.567.226q1.387,0,1.387-.8a.67.67,0,0,0-.184-.489,2.665,2.665,0,0,0-.635-.426q-.451-.238-1.2-.556a7.559,7.559,0,0,1-1.583-.836A2.352,2.352,0,0,1,62.776-17a2.91,2.91,0,0,1-.23-1.224,2.219,2.219,0,0,1,.965-1.926,4.7,4.7,0,0,1,2.737-.681,7.768,7.768,0,0,1,3.284.735l-.769,1.838q-.7-.3-1.312-.493a4.12,4.12,0,0,0-1.245-.192q-1.128,0-1.128.61a.717.717,0,0,0,.363.593,9.885,9.885,0,0,0,1.592.744,7.4,7.4,0,0,1,1.6.827,2.447,2.447,0,0,1,.752.886A2.722,2.722,0,0,1,69.632-14.085Z" transform="translate(-2.875 24.313)" fill="#707070"/>
    <g id="Group_352" data-name="Group 352" transform="translate(71.753 3.293)">
      <path id="star" d="M24.835.311l-1.186,2.4L21,3.1a.581.581,0,0,0-.321.991l1.919,1.87L22.141,8.6a.581.581,0,0,0,.842.612l2.373-1.247,2.373,1.247a.581.581,0,0,0,.842-.612l-.454-2.642,1.919-1.87a.581.581,0,0,0-.321-.991l-2.653-.387L25.877.311A.581.581,0,0,0,24.835.311Z" transform="translate(-20.5 0.013)" fill="#707070"/>
      <path id="star-2" data-name="star" d="M24.835.311l-1.186,2.4L21,3.1a.581.581,0,0,0-.321.991l1.919,1.87L22.141,8.6a.581.581,0,0,0,.842.612l2.373-1.247,2.373,1.247a.581.581,0,0,0,.842-.612l-.454-2.642,1.919-1.87a.581.581,0,0,0-.321-.991l-2.653-.387L25.877.311A.581.581,0,0,0,24.835.311Z" transform="translate(-8.683 0.013)" fill="#707070"/>
      <path id="star-3" data-name="star" d="M24.835.311l-1.186,2.4L21,3.1a.581.581,0,0,0-.321.991l1.919,1.87L22.141,8.6a.581.581,0,0,0,.842.612l2.373-1.247,2.373,1.247a.581.581,0,0,0,.842-.612l-.454-2.642,1.919-1.87a.581.581,0,0,0-.321-.991l-2.653-.387L25.877.311A.581.581,0,0,0,24.835.311Z" transform="translate(14.951 0.013)" fill="#707070"/>
      <path id="star-4" data-name="star" d="M24.835.311l-1.186,2.4L21,3.1a.581.581,0,0,0-.321.991l1.919,1.87L22.141,8.6a.581.581,0,0,0,.842.612l2.373-1.247,2.373,1.247a.581.581,0,0,0,.842-.612l-.454-2.642,1.919-1.87a.581.581,0,0,0-.321-.991l-2.653-.387L25.877.311A.581.581,0,0,0,24.835.311Z" transform="translate(3.134 0.013)" fill="#707070"/>
      <path id="star-5" data-name="star" d="M24.835.311l-1.186,2.4L21,3.1a.581.581,0,0,0-.321.991l1.919,1.87L22.141,8.6a.581.581,0,0,0,.842.612l2.373-1.247,2.373,1.247a.581.581,0,0,0,.842-.612l-.454-2.642,1.919-1.87a.581.581,0,0,0-.321-.991l-2.653-.387L25.877.311A.581.581,0,0,0,24.835.311Z" transform="translate(26.768 0.013)" fill="#707070"/>
    </g>
  </g>
</svg>
