<svg xmlns="http://www.w3.org/2000/svg" width="17" height="17" viewBox="0 0 17 17">
  <path id="Path_102" data-name="Path 102" d="M69.73,46.918l-5.443-6.585.694-.582a1.35,1.35,0,0,1,1.9.179l2.979,3.606,8.69-7.7A2.905,2.905,0,0,0,75.666,33.3H61.6v17h17V39.1Z" transform="translate(-61.6 -33.3)" fill="#43b649"/>
</svg>
