<svg id="atm" xmlns="http://www.w3.org/2000/svg" width="91.18" height="101.311" viewBox="0 0 91.18 101.311">
  <path id="Path_526" data-name="Path 526" d="M3533.9,3259.116h69.229v10.131H3533.9Z" transform="translate(-3522.084 -3169.624)" fill="#43b649"/>
  <path id="Path_527" data-name="Path 527" d="M3541.625,2930.919h32.082v-87.8h-87.8v87.8h32.082" transform="translate(-3484.216 -2841.428)" fill="#43b649"/>
  <path id="Path_528" data-name="Path 528" d="M3565.9,2883.116h54.032v37.147H3565.9Z" transform="translate(-3547.33 -2872.985)" fill="#f7f8f8"/>
  <path id="Path_529" data-name="Path 529" d="M3613.9,2923.116h20.262v6.754H3613.9Z" transform="translate(-3585.199 -2904.542)" fill="#ffcb78"/>
  <path id="Path_530" data-name="Path 530" d="M3597.9,3233.87v-3.377a3.377,3.377,0,0,1,3.377-3.377h33.771a3.377,3.377,0,0,1,3.377,3.377v3.377Z" transform="translate(-3572.576 -3144.378)" fill="#303b71"/>
  <path id="Path_531" data-name="Path 531" d="M3637.9,3227.116h23.639V3244H3637.9Z" transform="translate(-3604.134 -3144.378)" fill="#ffcb78"/>
  <path id="Path_532" data-name="Path 532" d="M3685.9,3227.116h6.754V3244H3685.9Z" transform="translate(-3642.002 -3144.378)" fill="#ed6725"/>
  <path id="Path_533" data-name="Path 533" d="M3567.4,2835.116h-87.8a1.688,1.688,0,0,0-1.688,1.688v48.967a1.688,1.688,0,0,0,3.377,0v-47.279h84.426v84.426h-20.262v-1.688a5.066,5.066,0,0,0-5.065-5.066h-33.77a5.066,5.066,0,0,0-5.066,5.066v1.688h-20.262v-30.393a1.688,1.688,0,1,0-3.377,0v32.082a1.689,1.689,0,0,0,1.688,1.688h8.443v8.442a1.689,1.689,0,1,0,3.377,0V2926.3h18.573v8.442a1.689,1.689,0,0,0,1.688,1.689h23.639a1.689,1.689,0,0,0,1.688-1.689V2926.3h20.262v8.442a1.688,1.688,0,1,0,3.377,0V2926.3h6.754a1.689,1.689,0,0,0,1.688-1.688v-87.8A1.688,1.688,0,0,0,3567.4,2835.116Zm-62.475,87.8v-1.688a1.689,1.689,0,0,1,1.689-1.689h3.377v3.377Zm8.443-3.377h6.754v13.508h-6.754Zm10.131,13.508v-13.508h3.377v13.508Zm10.131,0h-3.377v-13.508h3.377Zm3.377-13.508h3.377a1.689,1.689,0,0,1,1.689,1.689v1.688H3537Z" transform="translate(-3477.904 -2835.116)" fill="#0f6f14"/>
  <path id="Path_534" data-name="Path 534" d="M3613.625,2903.821a1.689,1.689,0,0,0,1.688-1.689V2876.8a1.688,1.688,0,0,0-1.688-1.688h-54.033a1.688,1.688,0,0,0-1.688,1.688v37.147a1.689,1.689,0,0,0,1.688,1.689h54.033a1.689,1.689,0,0,0,1.688-1.689v-5.065a1.689,1.689,0,0,0-3.377,0v3.377h-50.656v-33.771h50.656v23.639A1.689,1.689,0,0,0,3613.625,2903.821Z" transform="translate(-3541.019 -2866.673)" fill="#0f6f14"/>
  <path id="Path_535" data-name="Path 535" d="M3751.738,2913.87a2.532,2.532,0,0,1,2.533,2.533,1.689,1.689,0,1,0,3.377,0,5.909,5.909,0,0,0-4.221-5.639V2908.8a1.688,1.688,0,0,0-3.377,0v1.959a5.893,5.893,0,0,0,1.688,11.549,2.533,2.533,0,1,1-2.533,2.533,1.688,1.688,0,1,0-3.377,0,5.91,5.91,0,0,0,4.221,5.639v1.959a1.688,1.688,0,0,0,3.377,0v-1.959a5.893,5.893,0,0,0-1.688-11.549,2.533,2.533,0,1,1,0-5.066Z" transform="translate(-3689.262 -2891.919)" fill="#303b71"/>
  <path id="Path_536" data-name="Path 536" d="M3629.543,2923.559V2916.8a1.688,1.688,0,0,0-1.688-1.688h-20.262a1.688,1.688,0,0,0,0,3.377h18.574v3.377h-18.574a1.688,1.688,0,1,0,0,3.377h20.262A1.688,1.688,0,0,0,3629.543,2923.559Z" transform="translate(-3578.888 -2898.231)" fill="#ed6725"/>
  <path id="Path_537" data-name="Path 537" d="M3622.789,2980.8a1.688,1.688,0,0,0-1.688-1.688h-13.508a1.688,1.688,0,0,0,0,3.377H3621.1A1.688,1.688,0,0,0,3622.789,2980.8Z" transform="translate(-3578.888 -2948.723)" fill="#ed6725"/>
  <path id="Path_538" data-name="Path 538" d="M3607.593,3011.116a1.688,1.688,0,0,0,0,3.377h6.754a1.688,1.688,0,0,0,0-3.377Z" transform="translate(-3578.888 -2973.969)" fill="#ed6725"/>
  <path id="Path_539" data-name="Path 539" d="M3576.035,3084.8a1.688,1.688,0,0,0-1.688-1.688h-6.754a1.689,1.689,0,0,0-1.689,1.688v6.754a1.689,1.689,0,0,0,1.689,1.688h6.754a1.689,1.689,0,0,0,1.688-1.688Zm-3.377,5.066h-3.377v-3.377h3.377Z" transform="translate(-3547.33 -3030.772)" fill="#0f6f14"/>
  <path id="Path_540" data-name="Path 540" d="M3638.347,3086.493a1.688,1.688,0,0,0,0-3.377h-6.754a1.688,1.688,0,0,0-1.688,1.688v6.754a1.689,1.689,0,0,0,1.688,1.688h6.754a1.688,1.688,0,0,0,0-3.377h-5.066v-3.377Z" transform="translate(-3597.822 -3030.772)" fill="#0f6f14"/>
  <path id="Path_541" data-name="Path 541" d="M3704.035,3084.8a1.688,1.688,0,0,0-1.688-1.688h-6.754a1.689,1.689,0,0,0-1.689,1.688v6.754a1.689,1.689,0,0,0,1.689,1.688h6.754a1.689,1.689,0,0,0,1.688-1.688Zm-3.377,5.066h-3.377v-3.377h3.377Z" transform="translate(-3648.314 -3030.772)" fill="#0f6f14"/>
  <path id="Path_542" data-name="Path 542" d="M3574.346,3147.116h-6.754a1.689,1.689,0,0,0-1.689,1.688v6.754a1.689,1.689,0,0,0,1.689,1.688h6.754a1.688,1.688,0,0,0,1.688-1.688V3148.8A1.688,1.688,0,0,0,3574.346,3147.116Zm-1.688,6.754h-3.377v-3.377h3.377Z" transform="translate(-3547.33 -3081.264)" fill="#0f6f14"/>
  <path id="Path_543" data-name="Path 543" d="M3638.347,3147.116h-6.754a1.688,1.688,0,0,0-1.688,1.688v6.754a1.688,1.688,0,0,0,1.688,1.688h6.754a1.688,1.688,0,0,0,1.688-1.688V3148.8A1.688,1.688,0,0,0,3638.347,3147.116Zm-1.688,6.754h-3.377v-3.377h3.377Z" transform="translate(-3597.822 -3081.264)" fill="#0f6f14"/>
  <path id="Path_544" data-name="Path 544" d="M3702.346,3147.116h-6.754a1.689,1.689,0,0,0-1.689,1.688v6.754a1.689,1.689,0,0,0,1.689,1.688h6.754a1.688,1.688,0,0,0,1.688-1.688V3148.8A1.688,1.688,0,0,0,3702.346,3147.116Zm-1.688,6.754h-3.377v-3.377h3.377Z" transform="translate(-3648.314 -3081.264)" fill="#0f6f14"/>
  <path id="Path_545" data-name="Path 545" d="M3777.724,3083.116h-10.131a1.688,1.688,0,0,0-1.688,1.688v20.262a1.688,1.688,0,0,0,1.688,1.688h10.131a1.688,1.688,0,0,0,1.688-1.688V3084.8A1.688,1.688,0,0,0,3777.724,3083.116Zm-1.689,20.262h-6.754v-16.885h6.754Z" transform="translate(-3705.117 -3030.772)" fill="#0f6f14"/>
  <path id="Path_546" data-name="Path 546" d="M3849.281,2892.8a1.689,1.689,0,1,1-1.689-1.688A1.689,1.689,0,0,1,3849.281,2892.8Z" transform="translate(-3768.232 -2879.296)" fill="#0f6f14"/>
  <path id="Path_547" data-name="Path 547" d="M3849.281,2940.8a1.689,1.689,0,1,1-1.689-1.689A1.689,1.689,0,0,1,3849.281,2940.8Z" transform="translate(-3768.232 -2917.165)" fill="#0f6f14"/>
  <path id="Path_548" data-name="Path 548" d="M3849.281,2988.8a1.689,1.689,0,1,1-1.689-1.688A1.689,1.689,0,0,1,3849.281,2988.8Z" transform="translate(-3768.232 -2955.034)" fill="#0f6f14"/>
  <path id="Path_549" data-name="Path 549" d="M3849.281,3036.8a1.689,1.689,0,1,1-1.689-1.688A1.689,1.689,0,0,1,3849.281,3036.8Z" transform="translate(-3768.232 -2992.903)" fill="#0f6f14"/>
  <path id="Path_550" data-name="Path 550" d="M3529.281,2892.8a1.688,1.688,0,1,1-1.688-1.688A1.689,1.689,0,0,1,3529.281,2892.8Z" transform="translate(-3515.773 -2879.296)" fill="#0f6f14"/>
  <path id="Path_551" data-name="Path 551" d="M3529.281,2940.8a1.688,1.688,0,1,1-1.688-1.689A1.689,1.689,0,0,1,3529.281,2940.8Z" transform="translate(-3515.773 -2917.165)" fill="#0f6f14"/>
  <path id="Path_552" data-name="Path 552" d="M3529.281,2988.8a1.688,1.688,0,1,1-1.688-1.688A1.689,1.689,0,0,1,3529.281,2988.8Z" transform="translate(-3515.773 -2955.034)" fill="#0f6f14"/>
  <path id="Path_553" data-name="Path 553" d="M3529.281,3036.8a1.688,1.688,0,1,1-1.688-1.688A1.689,1.689,0,0,1,3529.281,3036.8Z" transform="translate(-3515.773 -2992.903)" fill="#0f6f14"/>
</svg>
