<svg id="bill" xmlns="http://www.w3.org/2000/svg" width="101.309" height="101.311" viewBox="0 0 101.309 101.311">
  <path id="Path_589" data-name="Path 589" d="M4188.381,3211.118h97.932v20.262h-97.932Z" transform="translate(-4186.692 -3131.757)" fill="#43b649"/>
  <path id="Path_590" data-name="Path 590" d="M4333.345,2851.57l-10.131-8.442-10.131,8.442-10.13-8.442-10.131,8.442-8.442-8.442v91.177h57.408v-91.177Z" transform="translate(-4262.429 -2841.437)" fill="#f7f8f8"/>
  <path id="Path_591" data-name="Path 591" d="M4280,3203.118h-13.508a1.688,1.688,0,0,0,0,3.377h11.82v16.885h-94.555v-16.885h11.819a1.688,1.688,0,1,0,0-3.377H4182.07a1.689,1.689,0,0,0-1.688,1.688v20.262a1.689,1.689,0,0,0,1.688,1.688H4280a1.689,1.689,0,0,0,1.689-1.688v-20.262A1.689,1.689,0,0,0,4280,3203.118Z" transform="translate(-4180.382 -3125.446)" fill="#0f6f14"/>
  <path id="Path_592" data-name="Path 592" d="M4239.757,2926.3v-3.377a1.689,1.689,0,0,0,0-3.377h-1.688a1.689,1.689,0,0,0-1.689,1.689v6.754a1.689,1.689,0,0,0,1.689,1.688h74.292a1.689,1.689,0,0,0,1.688-1.688v-6.754a1.688,1.688,0,0,0-1.688-1.689h-1.688a1.689,1.689,0,0,0,0,3.377v3.377h-5.066v-55.719a1.688,1.688,0,1,0-3.376,0V2926.3H4248.2v-85.419l5.555,5.572a1.687,1.687,0,0,0,2.279.1l9.05-7.547,9.05,7.547a1.688,1.688,0,0,0,2.161,0l9.051-7.547,9.05,7.547a1.688,1.688,0,0,0,2.279-.1l5.555-5.572v22.946a1.688,1.688,0,1,0,3.376,0v-27.015a1.7,1.7,0,0,0-2.887-1.2l-7.345,7.362-8.949-7.464a1.689,1.689,0,0,0-2.161,0l-9.05,7.548-9.051-7.548a1.689,1.689,0,0,0-2.161,0l-8.948,7.464-7.345-7.362a1.7,1.7,0,0,0-2.887,1.2V2926.3Z" transform="translate(-4224.561 -2835.116)" fill="#0f6f14"/>
  <path id="Path_593" data-name="Path 593" d="M4326.21,3089.875a2.534,2.534,0,0,1,2.533,2.533,1.688,1.688,0,1,0,3.376,0,5.911,5.911,0,0,0-4.221-5.639v-1.959a1.688,1.688,0,0,0-3.377,0v1.959a5.893,5.893,0,0,0,1.688,11.549,2.533,2.533,0,1,1-2.533,2.533,1.688,1.688,0,0,0-3.377,0,5.909,5.909,0,0,0,4.221,5.64v1.958a1.688,1.688,0,1,0,3.377,0v-1.958a5.893,5.893,0,0,0-1.688-11.55,2.533,2.533,0,0,1,0-5.065Z" transform="translate(-4290.752 -3030.776)" fill="#303b71"/>
  <path id="Path_594" data-name="Path 594" d="M4394.769,2915.126h-28.7a1.688,1.688,0,0,0,0,3.377h28.7a1.688,1.688,0,1,0,0-3.377Z" transform="translate(-4325.542 -2898.239)" fill="#ed6725"/>
  <path id="Path_595" data-name="Path 595" d="M4369.524,2955.125h-35.458a1.688,1.688,0,1,0,0,3.377h35.458a1.688,1.688,0,0,0,0-3.377Z" transform="translate(-4300.297 -2929.795)" fill="#ed6725"/>
  <path id="Path_596" data-name="Path 596" d="M4334.066,2998.5h21.95a1.688,1.688,0,0,0,0-3.377h-21.95a1.688,1.688,0,1,0,0,3.377Z" transform="translate(-4300.297 -2961.352)" fill="#ed6725"/>
  <path id="Path_597" data-name="Path 597" d="M4357.7,3036.811a1.688,1.688,0,0,0-1.688-1.688h-21.95a1.688,1.688,0,0,0,0,3.377h21.95A1.688,1.688,0,0,0,4357.7,3036.811Z" transform="translate(-4300.297 -2992.908)" fill="#ed6725"/>
  <path id="Path_598" data-name="Path 598" d="M4420.015,3075.121h-21.95a1.688,1.688,0,1,0,0,3.377h21.95a1.688,1.688,0,0,0,0-3.377Z" transform="translate(-4350.787 -3024.464)" fill="#ed6725"/>
  <path id="Path_599" data-name="Path 599" d="M4398.065,3118.5h10.13a1.688,1.688,0,0,0,0-3.377h-10.13a1.688,1.688,0,1,0,0,3.377Z" transform="translate(-4350.787 -3056.021)" fill="#ed6725"/>
  <path id="Path_600" data-name="Path 600" d="M4398.065,3158.5h16.884a1.688,1.688,0,0,0,0-3.377h-16.884a1.688,1.688,0,1,0,0,3.377Z" transform="translate(-4350.787 -3087.577)" fill="#ed6725"/>
  <path id="Path_601" data-name="Path 601" d="M4476.816,2995.124h-6.753a1.688,1.688,0,1,0,0,3.377h6.753a1.688,1.688,0,1,0,0-3.377Z" transform="translate(-4407.589 -2961.352)" fill="#ed6725"/>
  <path id="Path_602" data-name="Path 602" d="M4476.816,3035.122h-6.753a1.688,1.688,0,1,0,0,3.377h6.753a1.688,1.688,0,0,0,0-3.377Z" transform="translate(-4407.589 -2992.908)" fill="#ed6725"/>
  <path id="Path_603" data-name="Path 603" d="M4484.816,3116.808a1.688,1.688,0,0,0-1.688-1.688h-5.065a1.688,1.688,0,0,0,0,3.377h5.065A1.689,1.689,0,0,0,4484.816,3116.808Z" transform="translate(-4413.9 -3056.021)" fill="#ed6725"/>
</svg>
