<svg id="growth" xmlns="http://www.w3.org/2000/svg" width="101.297" height="101.311" viewBox="0 0 101.297 101.311">
  <path id="Path_687" data-name="Path 687" d="M4927.62,3623.281h97.92v6.753h-97.92Z" transform="translate(-4925.932 -3621.592)" fill="#43b649"/>
  <path id="Path_688" data-name="Path 688" d="M4927.62,3943.236h97.92v6.753h-97.92Z" transform="translate(-4925.932 -3874.016)" fill="#43b649"/>
  <path id="Path_689" data-name="Path 689" d="M4951.616,3655.277h87.791v60.778h-87.791Z" transform="translate(-4944.863 -3646.835)" fill="#f7f8f8"/>
  <path id="Path_690" data-name="Path 690" d="M5150.342,4058.6a3.376,3.376,0,1,1-3.376-3.377A3.376,3.376,0,0,1,5150.342,4058.6Z" transform="translate(-5096.317 -3962.365)" fill="#43b649"/>
  <path id="Path_691" data-name="Path 691" d="M5263.573,3775.26H5273.7v27.012h-10.129Z" transform="translate(-5190.977 -3741.494)" fill="#ffcb78"/>
  <path id="Path_692" data-name="Path 692" d="M5175.585,3799.257h10.129V3821.2h-10.129Z" transform="translate(-5121.56 -3760.427)" fill="#ffcb78"/>
  <path id="Path_693" data-name="Path 693" d="M5087.6,3823.253h10.129v16.883H5087.6Z" transform="translate(-5052.144 -3779.358)" fill="#ffcb78"/>
  <path id="Path_694" data-name="Path 694" d="M4999.61,3855.249h10.129v10.13H4999.61Z" transform="translate(-4982.727 -3804.6)" fill="#ffcb78"/>
  <path id="Path_695" data-name="Path 695" d="M5006.363,3690.648a3.376,3.376,0,1,1-3.377-3.376A3.377,3.377,0,0,1,5006.363,3690.648Z" transform="translate(-4982.727 -3672.077)" fill="#ffcb78"/>
  <path id="Path_696" data-name="Path 696" d="M5020.918,3623.723v-6.753a1.689,1.689,0,0,0-1.688-1.688h-97.92a1.688,1.688,0,0,0,0,3.376h96.232v3.377h-96.232a1.688,1.688,0,0,0,0,3.376h3.377v57.4h-3.377a1.688,1.688,0,0,0-1.688,1.688v6.753a1.688,1.688,0,0,0,1.688,1.688h47.272v13.811a5.064,5.064,0,1,0,3.376,0v-13.811h47.272a1.688,1.688,0,1,0,0-3.377H4923v-3.376h96.232a1.688,1.688,0,1,0,0-3.377h-3.376v-52.337a1.688,1.688,0,1,0-3.376,0v52.337h-84.414v-57.4h91.167A1.689,1.689,0,0,0,5020.918,3623.723Zm-50.649,89.479a1.688,1.688,0,1,1,1.688-1.688A1.688,1.688,0,0,1,4970.269,3713.2Z" transform="translate(-4919.621 -3615.282)" fill="#0f6f14"/>
  <path id="Path_697" data-name="Path 697" d="M5257.262,3797.65h10.13a1.689,1.689,0,0,0,1.688-1.688v-27.013a1.689,1.689,0,0,0-1.688-1.688h-10.13a1.688,1.688,0,0,0-1.688,1.688v27.013A1.688,1.688,0,0,0,5257.262,3797.65Zm1.688-27.013h6.753v23.636h-6.753Z" transform="translate(-5184.667 -3735.184)" fill="#ed6725"/>
  <path id="Path_698" data-name="Path 698" d="M5169.274,3813.206a1.688,1.688,0,0,0,0,3.377h10.13a1.688,1.688,0,0,0,1.688-1.688v-21.948a1.688,1.688,0,0,0-1.688-1.688h-10.13a1.688,1.688,0,0,0-1.688,1.688v15.194a1.688,1.688,0,1,0,3.376,0v-13.506h6.753v18.571Z" transform="translate(-5115.25 -3754.116)" fill="#ed6725"/>
  <path id="Path_699" data-name="Path 699" d="M5081.286,3815.254a1.688,1.688,0,0,0-1.688,1.688v16.883a1.688,1.688,0,0,0,1.688,1.688h10.13a1.689,1.689,0,0,0,1.688-1.688v-16.883a1.689,1.689,0,0,0-1.688-1.688Zm8.441,16.883h-6.753V3818.63h6.753Z" transform="translate(-5045.833 -3773.047)" fill="#ed6725"/>
  <path id="Path_700" data-name="Path 700" d="M4991.611,3859.068a1.688,1.688,0,0,0,1.688,1.688h10.13a1.689,1.689,0,0,0,1.688-1.688v-10.13a1.689,1.689,0,0,0-1.688-1.688H4993.3a1.688,1.688,0,0,0-1.688,1.688Zm3.376-8.441h6.753v6.753h-6.753Z" transform="translate(-4976.416 -3798.29)" fill="#ed6725"/>
  <path id="Path_701" data-name="Path 701" d="M5073.029,3687.714a1.688,1.688,0,1,0,3.376,0v-6.753a1.715,1.715,0,0,0-1.688-1.688h-6.752a1.688,1.688,0,1,0,0,3.376h2.684l-11.818,11.818H5034.2a1.692,1.692,0,0,0-.76.186l-16.883,8.441a1.687,1.687,0,0,0,.76,3.191,1.571,1.571,0,0,0,.759-.185l16.529-8.256h24.919a1.69,1.69,0,0,0,1.2-.49l12.308-12.324Z" transform="translate(-4995.368 -3665.766)" fill="#303b71"/>
  <path id="Path_702" data-name="Path 702" d="M4996.676,3689.4a5.065,5.065,0,1,0-5.065-5.065A5.065,5.065,0,0,0,4996.676,3689.4Zm0-6.753a1.688,1.688,0,1,1-1.688,1.688A1.688,1.688,0,0,1,4996.676,3682.649Z" transform="translate(-4976.416 -3665.766)" fill="#0f6f14"/>
  <path id="Path_703" data-name="Path 703" d="M5058.979,3696.959a1.688,1.688,0,1,1-1.688-1.688A1.689,1.689,0,0,1,5058.979,3696.959Z" transform="translate(-5026.901 -3678.388)" fill="#0f6f14"/>
  <path id="Path_704" data-name="Path 704" d="M5090.974,3696.959a1.688,1.688,0,1,1-1.688-1.688A1.688,1.688,0,0,1,5090.974,3696.959Z" transform="translate(-5052.144 -3678.388)" fill="#0f6f14"/>
</svg>
