<svg id="payment-method" xmlns="http://www.w3.org/2000/svg" width="101.311" height="94.557" viewBox="0 0 101.311 94.557">
  <path id="Path_857" data-name="Path 857" d="M1178.2,2030.455h84.426a6.754,6.754,0,0,1,6.754,6.754v50.656h-97.934v-50.656A6.754,6.754,0,0,1,1178.2,2030.455Z" transform="translate(-1169.755 -2028.766)" fill="#f7f8f8"/>
  <path id="Path_858" data-name="Path 858" d="M1171.444,2302.455h97.934v6.754a6.754,6.754,0,0,1-6.754,6.754H1178.2a6.754,6.754,0,0,1-6.754-6.754Z" transform="translate(-1169.755 -2243.357)" fill="#43b649"/>
  <path id="Path_859" data-name="Path 859" d="M1253.575,2414.455h47.278a10.132,10.132,0,0,1,10.131,10.131h-67.541A10.132,10.132,0,0,1,1253.575,2414.455Z" transform="translate(-1226.559 -2331.717)" fill="#43b649"/>
  <path id="Path_860" data-name="Path 860" d="M1357.214,2376.586h-33.77l3.377-10.131h27.016Z" transform="translate(-1289.673 -2293.849)" fill="#43b649"/>
  <path id="Path_861" data-name="Path 861" d="M1275.444,2086.455H1326.1v33.771h-50.656Z" transform="translate(-1251.805 -2072.947)" fill="#ffcb78"/>
  <path id="Path_862" data-name="Path 862" d="M1275.444,2118.455H1326.1v6.754h-50.656Z" transform="translate(-1251.805 -2098.193)" fill="#f7f8f8"/>
  <path id="Path_863" data-name="Path 863" d="M1346.2,2185.832a3.377,3.377,0,1,1-3.377-3.377A3.377,3.377,0,0,1,1346.2,2185.832Z" transform="translate(-1302.296 -2148.685)" fill="#f7f8f8"/>
  <path id="Path_864" data-name="Path 864" d="M1211.444,2086.455h6.754v6.754h-6.754Z" transform="translate(-1201.313 -2072.947)" fill="#43b649"/>
  <path id="Path_865" data-name="Path 865" d="M1211.444,2150.455h6.754v6.754h-6.754Z" transform="translate(-1201.313 -2123.439)" fill="#43b649"/>
  <path id="Path_866" data-name="Path 866" d="M1211.444,2214.455h6.754v6.754h-6.754Z" transform="translate(-1201.313 -2173.93)" fill="#43b649"/>
  <path id="Path_867" data-name="Path 867" d="M1322.2,2185.832a3.377,3.377,0,1,1-3.377-3.377A3.377,3.377,0,0,1,1322.2,2185.832Z" transform="translate(-1283.362 -2148.685)" fill="#f6b817"/>
  <path id="Path_868" data-name="Path 868" d="M1445.575,2174.455h-8.443a1.688,1.688,0,0,0,0,3.377h8.443a1.688,1.688,0,1,0,0-3.377Z" transform="translate(-1378.034 -2142.373)" fill="#ed6725"/>
  <path id="Path_869" data-name="Path 869" d="M1464.509,2206.455h-3.377a1.688,1.688,0,0,0,0,3.377h3.377a1.688,1.688,0,0,0,0-3.377Z" transform="translate(-1396.969 -2167.619)" fill="#ed6725"/>
  <path id="Path_870" data-name="Path 870" d="M1310.821,2179.442a1.689,1.689,0,0,0-3.377,0,6.341,6.341,0,1,1,5.066,0,4.942,4.942,0,0,0,.3,1.689h-.3A1.689,1.689,0,0,1,1310.821,2179.442Zm6.754-1.688a1.689,1.689,0,1,1-1.688,1.688A1.689,1.689,0,0,1,1317.575,2177.754Z" transform="translate(-1277.05 -2142.295)" fill="#ed6725"/>
  <path id="Path_871" data-name="Path 871" d="M1269.132,2054.455a1.689,1.689,0,0,0-1.688,1.688v43.9a1.688,1.688,0,0,0,3.377,0v-23.639H1318.1v16.885h-42.213a1.689,1.689,0,0,0,0,3.377h43.9a1.689,1.689,0,0,0,1.688-1.688v-6.754h5.066a1.689,1.689,0,0,0,0-3.377h-5.066v-5.066h8.443a1.688,1.688,0,0,0,0-3.377h-8.443v-5.065h10.131a1.688,1.688,0,1,0,0-3.377h-10.131V2062.9h8.443a1.688,1.688,0,0,0,0-3.377h-59.1v-3.377A1.689,1.689,0,0,0,1269.132,2054.455Zm1.688,18.573v-3.377H1318.1v3.377ZM1318.1,2062.9v3.377h-47.279V2062.9Z" transform="translate(-1245.493 -2047.701)" fill="#ed6725"/>
  <path id="Path_872" data-name="Path 872" d="M1541.132,2238.455a1.688,1.688,0,0,0,0,3.377h6.754a1.688,1.688,0,1,0,0-3.377Z" transform="translate(-1460.084 -2192.865)" fill="#43b649"/>
  <path id="Path_873" data-name="Path 873" d="M1590.821,2160.144a1.689,1.689,0,1,1-1.689-1.688A1.689,1.689,0,0,1,1590.821,2160.144Z" transform="translate(-1497.953 -2129.75)" fill="#43b649"/>
  <path id="Path_874" data-name="Path 874" d="M1598.821,2120.144a1.689,1.689,0,1,1-1.689-1.688A1.689,1.689,0,0,1,1598.821,2120.144Z" transform="translate(-1504.264 -2098.193)" fill="#43b649"/>
  <path id="Path_875" data-name="Path 875" d="M1571.444,2200.144a1.689,1.689,0,0,0,1.688,1.688h5.066a1.688,1.688,0,0,0,0-3.377h-5.066A1.688,1.688,0,0,0,1571.444,2200.144Z" transform="translate(-1485.33 -2161.308)" fill="#43b649"/>
  <path id="Path_876" data-name="Path 876" d="M1205.132,2088.586h6.754a1.689,1.689,0,0,0,1.689-1.688v-6.754a1.689,1.689,0,0,0-1.689-1.688h-6.754a1.688,1.688,0,0,0-1.688,1.688v6.754A1.689,1.689,0,0,0,1205.132,2088.586Zm1.688-6.754h3.377v3.377h-3.377Z" transform="translate(-1195.001 -2066.635)" fill="#0f6f14"/>
  <path id="Path_877" data-name="Path 877" d="M1203.444,2150.9a1.689,1.689,0,0,0,1.688,1.688h6.754a1.688,1.688,0,1,0,0-3.377h-5.066v-3.377h5.066a1.688,1.688,0,1,0,0-3.377h-6.754a1.688,1.688,0,0,0-1.688,1.688Z" transform="translate(-1195.001 -2117.127)" fill="#0f6f14"/>
  <path id="Path_878" data-name="Path 878" d="M1203.444,2214.9a1.689,1.689,0,0,0,1.688,1.688h6.754a1.689,1.689,0,0,0,1.689-1.688v-6.754a1.689,1.689,0,0,0-1.689-1.688h-6.754a1.688,1.688,0,0,0-1.688,1.688Zm3.377-5.066h3.377v3.377h-3.377Z" transform="translate(-1195.001 -2167.619)" fill="#0f6f14"/>
  <path id="Path_879" data-name="Path 879" d="M1256.313,2022.455h-84.426a8.443,8.443,0,0,0-8.443,8.443v23.639a1.689,1.689,0,1,0,3.377,0V2030.9a5.066,5.066,0,0,1,5.065-5.066h84.426a5.066,5.066,0,0,1,5.065,5.066v57.41a5.066,5.066,0,0,1-5.065,5.066h-84.426a5.066,5.066,0,0,1-5.065-5.066v-5.066h89.491a1.688,1.688,0,0,0,0-3.377h-89.491v-18.574a1.689,1.689,0,0,0-3.377,0v27.016a8.443,8.443,0,0,0,8.443,8.442h26.358L1196,2103.5h-5.538a11.819,11.819,0,0,0-11.82,11.82,1.689,1.689,0,0,0,1.688,1.688h67.541a1.689,1.689,0,0,0,1.688-1.688,11.819,11.819,0,0,0-11.82-11.82H1232.2l-2.246-6.754h26.358a8.443,8.443,0,0,0,8.443-8.442V2030.9A8.443,8.443,0,0,0,1256.313,2022.455Zm-10.3,91.18h-63.825a8.442,8.442,0,0,1,8.273-6.754h47.279A8.442,8.442,0,0,1,1246.012,2113.635Zm-17.375-10.131h-29.076l2.246-6.754h24.584Z" transform="translate(-1163.444 -2022.455)" fill="#0f6f14"/>
  <path id="Path_880" data-name="Path 880" d="M1574.821,2328.143a1.688,1.688,0,1,1-1.689-1.688A1.689,1.689,0,0,1,1574.821,2328.143Z" transform="translate(-1485.33 -2262.291)" fill="#0f6f14"/>
  <path id="Path_881" data-name="Path 881" d="M1542.821,2328.143a1.689,1.689,0,1,1-1.689-1.688A1.689,1.689,0,0,1,1542.821,2328.143Z" transform="translate(-1460.084 -2262.291)" fill="#0f6f14"/>
</svg>
