<svg id="startup" xmlns="http://www.w3.org/2000/svg" width="100.813" height="101.1" viewBox="0 0 100.813 101.1">
  <path id="Path_989" data-name="Path 989" d="M1541.047,441.991a5.059,5.059,0,0,0-2.309.573,6.74,6.74,0,0,0-12.857,2.8,3.37,3.37,0,1,0,2.7,5.359,6.622,6.622,0,0,0,8.61-.439,5.055,5.055,0,1,0,3.859-8.29Z" transform="translate(-1446.974 -423.458)" fill="#ffcb78"/>
  <path id="Path_990" data-name="Path 990" d="M1176.2,533.33a5.065,5.065,0,0,1,1.82.354,8.425,8.425,0,0,1,15.469-3.033,6.734,6.734,0,1,1-1.82,10.818,8.324,8.324,0,0,1-11.205-.4,5.055,5.055,0,1,1-4.263-7.734Z" transform="translate(-1169.752 -492.892)" fill="#ffcb78"/>
  <path id="Path_991" data-name="Path 991" d="M1490.578,693.969a16.85,16.85,0,0,1,16.85,16.85V724.3h-6.74a10.11,10.11,0,0,1-10.11-10.11Z" transform="translate(-1421.78 -624.885)" fill="#43b649"/>
  <path id="Path_992" data-name="Path 992" d="M1251.956,714.189a10.11,10.11,0,0,1-10.11,10.11h-6.74v-13.48a16.85,16.85,0,0,1,16.85-16.85Z" transform="translate(-1220.229 -624.885)" fill="#43b649"/>
  <path id="Path_993" data-name="Path 993" d="M1309.7,374.629,1301,384.5a65.044,65.044,0,0,0-9.841,71.008h37.071a65.043,65.043,0,0,0-9.84-71.008Z" transform="translate(-1259.435 -372.946)" fill="#43b649"/>
  <path id="Path_994" data-name="Path 994" d="M1356.626,519.215a16.85,16.85,0,1,1-16.85-16.85A16.85,16.85,0,0,1,1356.626,519.215Z" transform="translate(-1289.513 -473.722)" fill="#f7f8f8"/>
  <path id="Path_995" data-name="Path 995" d="M1314.941,757.837h37.071v3.37a3.37,3.37,0,0,1-3.37,3.37h-30.331a3.37,3.37,0,0,1-3.37-3.37Z" transform="translate(-1283.214 -675.273)" fill="#ed6725"/>
  <path id="Path_996" data-name="Path 996" d="M1359.683,384.5l-8.7-9.874-8.695,9.874a67.668,67.668,0,0,0-5.156,6.74,28.462,28.462,0,0,0,27.7.017A67.761,67.761,0,0,0,1359.683,384.5Z" transform="translate(-1300.726 -372.946)" fill="#ed6725"/>
  <path id="Path_997" data-name="Path 997" d="M1390.163,693.969a3.37,3.37,0,0,1,3.37,3.37V720.93a3.37,3.37,0,1,1-6.74,0V697.339A3.37,3.37,0,0,1,1390.163,693.969Z" transform="translate(-1339.901 -624.885)" fill="#43b649"/>
  <path id="Path_998" data-name="Path 998" d="M1380.639,538.552a2.527,2.527,0,0,1-2.527-2.528,1.685,1.685,0,1,0-3.37,0,5.9,5.9,0,0,0,4.213,5.628v1.955a1.685,1.685,0,0,0,3.37,0v-1.955a5.881,5.881,0,0,0-1.685-11.525,2.528,2.528,0,1,1,2.527-2.528,1.685,1.685,0,1,0,3.37,0,5.9,5.9,0,0,0-4.213-5.628v-1.955a1.685,1.685,0,1,0-3.37,0v1.955a5.881,5.881,0,0,0,1.685,11.525,2.527,2.527,0,0,1,0,5.055Z" transform="translate(-1330.377 -486.319)" fill="#303b71"/>
  <path id="Path_999" data-name="Path 999" d="M1320.35,502.217a1.685,1.685,0,0,0-2.325.489,18.572,18.572,0,1,0,5.24-5.24,1.685,1.685,0,1,0,1.786,2.8,15.165,15.165,0,1,1-4.229,4.229A1.685,1.685,0,0,0,1320.35,502.217Z" transform="translate(-1283.214 -467.424)" fill="#303b71"/>
  <path id="Path_1000" data-name="Path 1000" d="M1289.233,435.252a66.123,66.123,0,0,0,1.213-7.785,1.684,1.684,0,1,0-3.354-.3,62.807,62.807,0,0,1-5.443,20.372H1274.3a1.685,1.685,0,1,0,0,3.37h6.74v1.685a1.685,1.685,0,0,1-1.685,1.685h-10.11V439.111a5.055,5.055,0,0,0-10.11,0v15.165h-10.11a1.685,1.685,0,0,1-1.685-1.685v-1.685h6.74a1.685,1.685,0,1,0,0-3.37h-7.346a63.172,63.172,0,0,1,4.161-60.375,30.2,30.2,0,0,0,26.59,0,63.619,63.619,0,0,1,9.891,33.415,1.685,1.685,0,0,0,3.37,0,66.8,66.8,0,0,0-16.6-43.474l-8.7-9.875a1.685,1.685,0,0,0-2.527,0l-8.7,9.875a66.631,66.631,0,0,0-15.166,58.168,18.536,18.536,0,0,0-11.946,17.322v13.48a1.685,1.685,0,0,0,1.685,1.685h6.74a11.8,11.8,0,0,0,11.8-10.448,5.14,5.14,0,0,0,1.685.337h10.11V462.7a5.055,5.055,0,1,0,10.11,0v-5.055h10.11a5.14,5.14,0,0,0,1.685-.337,11.8,11.8,0,0,0,11.8,10.448h6.74a1.685,1.685,0,0,0,1.685-1.685v-13.48A18.535,18.535,0,0,0,1289.233,435.252Zm-32.471-55.926,7.431-8.425,7.431,8.425a59.73,59.73,0,0,1,3.96,5.055,27.516,27.516,0,0,1-22.765,0C1254.083,382.629,1255.347,380.944,1256.762,379.326Zm-12.789,76.635a8.425,8.425,0,0,1-8.425,8.425h-5.055v-11.8a15.165,15.165,0,0,1,9.47-14.019,67.41,67.41,0,0,0,4.01,11Zm21.905,6.74a1.685,1.685,0,1,1-3.37,0v-23.59a1.685,1.685,0,0,1,3.37,0Zm32.016,1.685h-5.055a8.426,8.426,0,0,1-8.425-8.425v-6.369a66.385,66.385,0,0,0,4.027-11.02,15.164,15.164,0,0,1,9.453,14.019Z" transform="translate(-1213.931 -366.657)" fill="#0f6f14"/>
  <path id="Path_1001" data-name="Path 1001" d="M1534.542,433.885a7.115,7.115,0,0,0-1.567.185,8.426,8.426,0,0,0-15.166,3.37,5.055,5.055,0,1,0,4.483,8.914,8.426,8.426,0,0,0,8.29-.354,6.743,6.743,0,0,0,3.96,1.365,1.685,1.685,0,0,0,0-3.37,3.369,3.369,0,0,1-2.561-1.214,1.673,1.673,0,0,0-2.443-.152,5.056,5.056,0,0,1-6.437.337,1.806,1.806,0,0,0-1.264-.337,1.681,1.681,0,0,0-1.112.674,1.681,1.681,0,1,1-1.349-2.679,1.685,1.685,0,0,0,1.685-1.685,5.055,5.055,0,0,1,9.639-2.089,1.687,1.687,0,0,0,2.308.791,3.37,3.37,0,0,1,4.9,2.983,1.685,1.685,0,0,0,3.37,0A6.74,6.74,0,0,0,1534.542,433.885Z" transform="translate(-1440.468 -417.037)" fill="#ed6725"/>
  <path id="Path_1002" data-name="Path 1002" d="M1183.847,538.259a1.69,1.69,0,0,0-.977-3.236,6.367,6.367,0,0,1-1.685.27,6.743,6.743,0,0,1-4.668-1.9,1.687,1.687,0,0,0-2.595.32,3.377,3.377,0,1,1-1.634-4.92,1.675,1.675,0,0,0,2.274-1.3,6.741,6.741,0,0,1,6.623-5.679,6.569,6.569,0,0,1,3.976,1.331,1.687,1.687,0,1,0,2.006-2.713,10.11,10.11,0,0,0-15.5,4.752,6.752,6.752,0,1,0,3.892,11.8,10.1,10.1,0,0,0,5.628,1.685A9.664,9.664,0,0,0,1183.847,538.259Z" transform="translate(-1164.623 -486.43)" fill="#ed6725"/>
</svg>
