<svg id="tax" xmlns="http://www.w3.org/2000/svg" width="87.803" height="101.311" viewBox="0 0 87.803 101.311">
  <path id="Path_1019" data-name="Path 1019" d="M3074.008,374.157a6.754,6.754,0,0,1,6.754,6.754v11.82h-13.508v-11.82A6.755,6.755,0,0,1,3074.008,374.157Z" transform="translate(-2998.024 -372.469)" fill="#43b649"/>
  <path id="Path_1020" data-name="Path 1020" d="M2858.975,374.157h-48.967a6.754,6.754,0,0,0-6.754,6.754v91.18h48.967a6.754,6.754,0,0,0,6.754-6.754V380.911a6.754,6.754,0,0,1,6.754-6.754Z" transform="translate(-2789.746 -372.469)" fill="#43b649"/>
  <path id="Path_1021" data-name="Path 1021" d="M2801.286,787.222v-5.066h-54.032v5.066a6.754,6.754,0,0,0,6.754,6.754h54.032A6.754,6.754,0,0,1,2801.286,787.222Z" transform="translate(-2745.565 -694.354)" fill="#43b649"/>
  <path id="Path_1022" data-name="Path 1022" d="M3021.024,607.042a16.885,16.885,0,1,1-16.885-16.885A16.885,16.885,0,0,1,3021.024,607.042Z" transform="translate(-2934.91 -542.878)" fill="#f7f8f8"/>
  <path id="Path_1023" data-name="Path 1023" d="M2842.008,451.665a1.688,1.688,0,0,0,1.688-1.689v-8.443h3.377a1.689,1.689,0,1,0,0-3.377h-10.131a1.689,1.689,0,0,0,0,3.377h3.377v8.443A1.688,1.688,0,0,0,2842.008,451.665Z" transform="translate(-2814.992 -422.96)" fill="#f7f8f8"/>
  <path id="Path_1024" data-name="Path 1024" d="M2902.654,450.774l.388-.76h6.348l.388.76a1.69,1.69,0,0,0,1.5.928,1.577,1.577,0,0,0,.76-.186,1.689,1.689,0,0,0,.743-2.263l-5.065-10.131a1.689,1.689,0,0,0-3.006,0l-5.065,10.131a1.689,1.689,0,0,0,3.006,1.52Zm3.563-7.109,1.486,2.971h-2.971Z" transform="translate(-2865.692 -422.997)" fill="#f7f8f8"/>
  <path id="Path_1025" data-name="Path 1025" d="M2984.235,438.61a1.688,1.688,0,0,0-2.4,0l-3.867,3.883-3.867-3.883a1.7,1.7,0,0,0-2.4,2.4l3.883,3.867-3.883,3.867a1.7,1.7,0,1,0,2.4,2.4l3.867-3.883,3.867,3.883a1.7,1.7,0,1,0,2.4-2.4l-3.883-3.867,3.883-3.867a1.688,1.688,0,0,0,0-2.4Z" transform="translate(-2922.25 -422.923)" fill="#f7f8f8"/>
  <path id="Path_1026" data-name="Path 1026" d="M2808.483,452.271a1.689,1.689,0,0,0-1.689,1.689v5.066a5.065,5.065,0,1,1-10.131,0V453.96a1.689,1.689,0,0,0-1.689-1.689H2754.45V374.6a5.066,5.066,0,0,1,5.066-5.066h48.967a8.309,8.309,0,0,0-1.689,5.066v32.082a1.689,1.689,0,0,0,3.377,0V388.108h11.82a1.689,1.689,0,0,0,1.688-1.689V374.6a8.443,8.443,0,0,0-8.442-8.443h-55.721a8.443,8.443,0,0,0-8.443,8.443v77.672h-10.131a1.688,1.688,0,0,0-1.688,1.689v5.066a8.443,8.443,0,0,0,8.442,8.443h54.033a8.443,8.443,0,0,0,8.443-8.443V453.96A1.688,1.688,0,0,0,2808.483,452.271ZM2820.3,374.6v10.131h-10.131V374.6a5.065,5.065,0,1,1,10.131,0ZM2747.7,464.091a5.066,5.066,0,0,1-5.065-5.066v-3.377h50.656v3.377a8.445,8.445,0,0,0,1.688,5.066Z" transform="translate(-2739.254 -366.157)" fill="#0f6f14"/>
  <path id="Path_1027" data-name="Path 1027" d="M3045.088,626.419a2.532,2.532,0,0,1-2.533-2.533,1.688,1.688,0,1,0-3.377,0,5.909,5.909,0,0,0,4.221,5.639v1.959a1.689,1.689,0,0,0,3.377,0v-1.959a5.893,5.893,0,0,0-1.689-11.549,2.533,2.533,0,1,1,2.533-2.533,1.688,1.688,0,0,0,3.377,0,5.909,5.909,0,0,0-4.221-5.639v-1.959a1.689,1.689,0,0,0-3.377,0V609.8a5.893,5.893,0,0,0,1.688,11.549,2.533,2.533,0,1,1,0,5.066Z" transform="translate(-2975.859 -555.501)" fill="#303b71"/>
  <path id="Path_1028" data-name="Path 1028" d="M2997.827,582.157a18.4,18.4,0,0,0-10.232,3.09,1.689,1.689,0,1,0,1.79,2.8,15.2,15.2,0,1,1-4.238,4.238,1.689,1.689,0,1,0-2.8-1.858,18.592,18.592,0,1,0,15.484-8.273Z" transform="translate(-2928.597 -536.567)" fill="#ed6725"/>
  <path id="Path_1029" data-name="Path 1029" d="M2921.647,535.845a1.688,1.688,0,0,0-1.688-1.688h-27.016a1.689,1.689,0,0,0,0,3.377h27.016A1.688,1.688,0,0,0,2921.647,535.845Z" transform="translate(-2859.172 -498.698)" fill="#303b71"/>
  <path id="Path_1030" data-name="Path 1030" d="M2870.27,574.157h-25.328a1.689,1.689,0,0,0,0,3.377h25.328a1.689,1.689,0,0,0,0-3.377Z" transform="translate(-2821.303 -530.255)" fill="#303b71"/>
  <path id="Path_1031" data-name="Path 1031" d="M2930.008,617.534a1.689,1.689,0,0,0,0-3.377h-5.066a1.689,1.689,0,0,0,0,3.377Z" transform="translate(-2884.418 -561.813)" fill="#303b71"/>
  <path id="Path_1032" data-name="Path 1032" d="M2843.254,655.845a1.688,1.688,0,0,0,1.688,1.689H2865.2a1.689,1.689,0,0,0,0-3.377h-20.262A1.688,1.688,0,0,0,2843.254,655.845Z" transform="translate(-2821.303 -593.37)" fill="#303b71"/>
  <path id="Path_1033" data-name="Path 1033" d="M2884.139,694.157h-15.2a1.689,1.689,0,0,0,0,3.377h15.2a1.689,1.689,0,1,0,0-3.377Z" transform="translate(-2840.238 -624.928)" fill="#303b71"/>
  <path id="Path_1034" data-name="Path 1034" d="M2844.942,737.534h27.016a1.689,1.689,0,0,0,0-3.377h-27.016a1.689,1.689,0,0,0,0,3.377Z" transform="translate(-2821.303 -656.485)" fill="#303b71"/>
  <path id="Path_1035" data-name="Path 1035" d="M2855.073,614.157h-10.131a1.689,1.689,0,0,0,0,3.377h10.131a1.689,1.689,0,0,0,0-3.377Z" transform="translate(-2821.303 -561.813)" fill="#303b71"/>
</svg>
